{
    "name": "Test5",
    "description": "Lorem ipsum...",
    "image": "https://st.depositphotos.com/1967477/1881/v/950/depositphotos_18812923-stock-illustration-happy-smiley-emoticon.jpg",
    "properties": {
      "simple_property": "example value",
      "rich_property": {
        "name": "Name",
        "value": "123",
        "display_value": "123 Example Value",
        "class": "emphasis",
        "css": {
          "color": "#ffffff",
          "font-weight": "bold",
          "text-decoration": "underline"
        }
      },
      "array_property": {
        "name": "Name",
        "value": [
          1,
          2,
          3,
          4
        ],
        "class": "emphasis"
      }
    }
  }